<svg width="11" height="8" viewBox="0 0 11 8" fill="none" xmlns="http://www.w3.org/2000/svg">
<path d="M1.25293 1L5.43965 7L9.62637 1" stroke="#1C1F1E" stroke-width="2" stroke-linecap="round" stroke-linejoin="round"/>
</svg>
