<svg width="89" height="76" viewBox="0 0 89 76" fill="none" xmlns="http://www.w3.org/2000/svg">
<path d="M10.3203 16.7213V9.68066H17.3609" stroke="#846C67" stroke-width="3.5" stroke-linecap="round" stroke-linejoin="round"/>
<path d="M78.8047 16.7213V9.68066H71.7641" stroke="#846C67" stroke-width="3.5" stroke-linecap="round" stroke-linejoin="round"/>
<path d="M17.3609 50.0039L10.3203 50.0039L10.3203 42.9633" stroke="#846C67" stroke-width="3.5" stroke-linecap="round" stroke-linejoin="round"/>
<path d="M71.7641 50.0039L78.8047 50.0039L78.8047 42.9633" stroke="#846C67" stroke-width="3.5" stroke-linecap="round" stroke-linejoin="round"/>
<rect x="2" y="2" width="85.1274" height="55.0448" stroke="#846C67" stroke-width="3.5" stroke-linecap="round" stroke-linejoin="round"/>
<path d="M34.6445 18.6416H55.7664" stroke="#846C67" stroke-width="3.5" stroke-linecap="round" stroke-linejoin="round"/>
<path d="M19.9219 25.6816H69.8462" stroke="#846C67" stroke-width="3.5" stroke-linecap="round" stroke-linejoin="round"/>
<path d="M19.9219 33.3623H69.8462" stroke="#846C67" stroke-width="3.5" stroke-linecap="round" stroke-linejoin="round"/>
<circle cx="45.8427" cy="56.0849" r="9.92086" fill="white" stroke="#846C67" stroke-width="3.5"/>
<circle cx="46" cy="56" r="4" fill="white" stroke="#846C67" stroke-width="3.5"/>
<path d="M36.1562 59.6055L28.2402 67.5215L33.8474 67.5215L33.8474 73.1287L41.7635 65.2127" stroke="#846C67" stroke-width="3.5" stroke-linecap="round" stroke-linejoin="round"/>
<path d="M55.6133 59.6055L63.5293 67.5215L57.9221 67.5215L57.9221 73.1287L50.0061 65.2127" stroke="#846C67" stroke-width="3.5" stroke-linecap="round" stroke-linejoin="round"/>
</svg>
