<svg width="93" height="93" viewBox="0 0 93 93" fill="none" xmlns="http://www.w3.org/2000/svg">
<path d="M45 36V45H93V36H45ZM90 42H48V39H90V42Z" fill="#846C67"/>
<path d="M48 33.0004H51V30.7384L69 16.8934L87 30.7384V33.0004H90V29.2624L69 13.1074L48 29.2624V33.0004Z" fill="#846C67"/>
<path d="M93 76.5C93 72.291 91.5525 68.1645 88.923 64.878L87.609 63.2355C86.7285 62.133 85.413 61.5 84 61.5C82.8795 61.5 81.8295 61.9125 81 62.6265V60H72V69H76.5885C75.5535 71.352 75 73.9095 75 76.5C75 80.9505 78.2505 84.6465 82.5 85.365V90H75V76.5V75H63V90H48V85.365C52.2495 84.648 55.5 80.952 55.5 76.5C55.5 72.291 54.0525 68.1645 51.423 64.878L50.109 63.2355C49.2285 62.133 47.913 61.5 46.5 61.5C45.087 61.5 43.7715 62.133 42.8925 63.234L41.577 64.878C38.9475 68.1645 37.5 72.291 37.5 76.5C37.5 80.9505 40.7505 84.6465 45 85.365V90H31.5V75H19.5V90H10.5V85.365C14.7495 84.648 18 80.952 18 76.5C18 72.756 16.848 69.081 14.745 66H16.5V57H7.5V61.7775C6.684 62.058 5.946 62.5395 5.3925 63.234L4.077 64.878C1.4475 68.1645 0 72.291 0 76.5C0 80.9505 3.2505 84.6465 7.5 85.365V90H3V85.5H0V93H7.5H10.5H45H48H82.5H85.5H93V85.5H90V90H85.5V85.365C89.7495 84.6465 93 80.9505 93 76.5ZM10.5 60H13.5V63H12.3735C11.8515 62.4345 11.2125 62.0235 10.5 61.7775V60ZM7.5 75V82.287C4.92 81.6165 3 79.2885 3 76.5C3 72.969 4.215 69.5085 6.4185 66.753L7.734 65.1075C8.0445 64.7205 8.505 64.5 9 64.5C9.495 64.5 9.9555 64.7205 10.266 65.109L11.5815 66.753C13.785 69.5085 15 72.969 15 76.5C15 79.2885 13.08 81.6165 10.5 82.287V75H7.5ZM28.5 90H22.5V78H28.5V90ZM45 75V82.287C42.42 81.6165 40.5 79.2885 40.5 76.5C40.5 72.969 41.715 69.5085 43.9185 66.753L45.234 65.1075C45.5445 64.7205 46.005 64.5 46.5 64.5C46.995 64.5 47.4555 64.7205 47.766 65.109L49.0815 66.753C51.285 69.5085 52.5 72.969 52.5 76.5C52.5 79.2885 50.58 81.6165 48 82.287V75H45ZM72 90H66V78H72V90ZM75 66V63H78V66H75ZM82.5 75V82.287C79.92 81.6165 78 79.2885 78 76.5C78 72.969 79.215 69.5085 81.4185 66.753L82.734 65.1075C83.0445 64.7205 83.505 64.5 84 64.5C84.495 64.5 84.9555 64.7205 85.266 65.109L86.5815 66.753C88.785 69.5085 90 72.969 90 76.5C90 79.2885 88.08 81.6165 85.5 82.287V75H82.5Z" fill="#846C67"/>
<path d="M51 48H48V60H51V48Z" fill="#846C67"/>
<path d="M90 48H87V60H90V48Z" fill="#846C67"/>
<path d="M81 48H72V57H81V48ZM78 54H75V51H78V54Z" fill="#846C67"/>
<path d="M66 48H57V57H66V48ZM63 54H60V51H63V54Z" fill="#846C67"/>
<path d="M28.5 21H19.5V30H28.5V21ZM25.5 27H22.5V24H25.5V27Z" fill="#846C67"/>
<path d="M40.5 21H31.5V30H40.5V21ZM37.5 27H34.5V24H37.5V27Z" fill="#846C67"/>
<path d="M16.5 21H7.5V30H16.5V21ZM13.5 27H10.5V24H13.5V27Z" fill="#846C67"/>
<path d="M28.5 33H19.5V42H28.5V33ZM25.5 39H22.5V36H25.5V39Z" fill="#846C67"/>
<path d="M40.5 33H31.5V42H40.5V33ZM37.5 39H34.5V36H37.5V39Z" fill="#846C67"/>
<path d="M16.5 33H7.5V42H16.5V33ZM13.5 39H10.5V36H13.5V39Z" fill="#846C67"/>
<path d="M28.5 45H19.5V54H28.5V45ZM25.5 51H22.5V48H25.5V51Z" fill="#846C67"/>
<path d="M40.5 45H31.5V54H40.5V45ZM37.5 51H34.5V48H37.5V51Z" fill="#846C67"/>
<path d="M7.5 54H16.5V45H7.5V54ZM10.5 48H13.5V51H10.5V48Z" fill="#846C67"/>
<path d="M19.5 66H28.5V57H19.5V66ZM22.5 60H25.5V63H22.5V60Z" fill="#846C67"/>
<path d="M31.5 66H40.5V57H31.5V66ZM34.5 60H37.5V63H34.5V60Z" fill="#846C67"/>
<path d="M57 69H66V60H57V69ZM60 63H63V66H60V63Z" fill="#846C67"/>
<path d="M3 18H45V25.5H48V15H0V64.5H3V18Z" fill="#846C67"/>
<path d="M7.5 9H40.5V12H43.5V6H40.5V0H7.5V6H4.5V12H7.5V9ZM10.5 3H37.5V6H10.5V3Z" fill="#846C67"/>
</svg>
